Show the Rigths Numbers
…
O argumento de posição em geom_bar() e geom_col() também pode receber
o valor de “identidade”. Assim como stat = “identity” significa “não
faça nenhum cálculo resumido”, position = “identity” significa “apenas
plote os valores conforme dados”. Isso nos permite fazer coisas como
plotar um fluxo de valores positivos e negativos em um gráfico de
barras. Esse tipo de gráfico é uma alternativa para um gráfico de linha
e é frequentemente visto em configurações de políticas públicas onde as
mudanças relativas a algum nível de limite ou linha de base são de
interesse.

oecd_sum

## # A tibble: 57 × 5
## # Groups:   year [57]
##     year other   usa  diff hi_lo
##    <int> <dbl> <dbl> <dbl> <chr>
##  1  1960  68.6  69.9 1.30  Below
##  2  1961  69.2  70.4 1.20  Below
##  3  1962  68.9  70.2 1.30  Below
##  4  1963  69.1  70   0.900 Below
##  5  1964  69.5  70.3 0.800 Below
##  6  1965  69.6  70.3 0.700 Below
##  7  1966  69.9  70.3 0.400 Below
##  8  1967  70.1  70.7 0.600 Below
##  9  1968  70.1  70.4 0.300 Below
## 10  1969  70.1  70.6 0.5   Below
## # ℹ 47 more rows
…
