Graph Tables, Add Labels, Make Notes
…
mutate(freq=N/sum(N), pct=round((freq*100),0)): A função mutate()
cria duas novas variáveis, freq e pct. A variável freq é calculada
dividindo o número de observações (N) em cada grupo pelo total de
observações em todos os grupos (sum(N)). A variável pct é obtida
multiplicando freq por 100 e arredondando o resultado para o número
inteiro mais próximo.

No final dessa sequência, o objeto rel_by_region conterá o resultado
da agregação dos dados. Ele terá as colunas bigregion, religion, N, freq
e pct.

rel_by_region

## # A tibble: 24 × 5
## # Groups:   bigregion [4]
##    bigregion religion       N    freq   pct
##    <fct>     <fct>      <int>   <dbl> <dbl>
##  1 Northeast Protestant   158 0.324      32
##  2 Northeast Catholic     162 0.332      33
##  3 Northeast Jewish        27 0.0553      6
##  4 Northeast None         112 0.230      23
##  5 Northeast Other         28 0.0574      6
##  6 Northeast <NA>           1 0.00205     0
##  7 Midwest   Protestant   325 0.468      47
##  8 Midwest   Catholic     172 0.247      25
##  9 Midwest   Jewish         3 0.00432     0
## 10 Midwest   None         157 0.226      23
## # ℹ 14 more rows
…
library(ggrepel)

elections_historic %>% select(2:7)

## # A tibble: 49 × 6
##     year winner                 win_party ec_pct popular_pct popular_margin
##    <int> <chr>                  <chr>      <dbl>       <dbl>          <dbl>
##  1  1824 John Quincy Adams      D.-R.      0.322       0.309        -0.104 
##  2  1828 Andrew Jackson         Dem.       0.682       0.559         0.122 
##  3  1832 Andrew Jackson         Dem.       0.766       0.547         0.178 
##  4  1836 Martin Van Buren       Dem.       0.578       0.508         0.142 
##  5  1840 William Henry Harrison Whig       0.796       0.529         0.0605
##  6  1844 James Polk             Dem.       0.618       0.495         0.0145
##  7  1848 Zachary Taylor         Whig       0.562       0.473         0.0479
##  8  1852 Franklin Pierce        Dem.       0.858       0.508         0.0695
##  9  1856 James Buchanan         Dem.       0.588       0.453         0.122 
## 10  1860 Abraham Lincoln        Rep.       0.594       0.396         0.101 
## # ℹ 39 more rows
…
5 Modificações
autorais

elections_historic 

## # A tibble: 49 × 19
##    election  year winner      win_party ec_pct popular_pct popular_margin  votes
##       <int> <int> <chr>       <chr>      <dbl>       <dbl>          <dbl>  <int>
##  1       10  1824 John Quinc… D.-R.      0.322       0.309        -0.104  1.13e5
##  2       11  1828 Andrew Jac… Dem.       0.682       0.559         0.122  6.43e5
##  3       12  1832 Andrew Jac… Dem.       0.766       0.547         0.178  7.03e5
##  4       13  1836 Martin Van… Dem.       0.578       0.508         0.142  7.63e5
##  5       14  1840 William He… Whig       0.796       0.529         0.0605 1.28e6
##  6       15  1844 James Polk  Dem.       0.618       0.495         0.0145 1.34e6
##  7       16  1848 Zachary Ta… Whig       0.562       0.473         0.0479 1.36e6
##  8       17  1852 Franklin P… Dem.       0.858       0.508         0.0695 1.61e6
##  9       18  1856 James Buch… Dem.       0.588       0.453         0.122  1.84e6
## 10       19  1860 Abraham Li… Rep.       0.594       0.396         0.101  1.86e6
## # ℹ 39 more rows
## # ℹ 11 more variables: margin <int>, runner_up <chr>, ru_part <chr>,
## #   turnout_pct <dbl>, winner_lname <chr>, winner_label <chr>, ru_lname <chr>,
## #   ru_label <chr>, two_term <lgl>, ec_votes <dbl>, ec_denom <dbl>
…
